{
  "serverPort": 80,
  "authTokens": [
    "1234"
  ],
  "sfdc": {
    "username": "genesys@domain.com",
    "password": "1234",
    "clientId": "9zZEFiheifht._DEKLFJEumN.FEFHUIELR3HFehfhelzkf789347.FHEJIFHeuehfzeu7874363.2FMDD_.",
    "clientSecret": "743894737483740",
    "securityToken": "JhHDZDZIhdh748397HDHDHjhsdkq",
    "environment": "sandbox"
  },
  "topics": [
    {
      "name": "Chat Routing",
      "handler": "external_routing_2pureengage",
      "enabled": false,
      "sfdc": {
        "push_topic": "PendingServiceRouting",
        "sObjectName": "PendingServiceRouting"
      },
      "genesys": {
        "capturePoint": {
          "url": "http://interactionserver:7612/Genesys/Interaction/GEN_CP_1/WebServiceCapturePoint?wsdl"
        }
      },
      "prioritySetup": {
        "sObjectField": "",
        "priorityMap": {},
        "defaultPriority": 100
      },
      "taskSetup": {
        "sfdcFieldsToGetFromSobject": [
          "Id",
          "CreatedDate",
          "ServiceChannelId",
          "WorkItemId",
          "QueueId"
        ],
        "propertiesMap": {
          "captureId": "<%sobject.Id%>",
          "channel": "LiveAgent",
          "category": "LiveAgent",
          "mediaType": "LiveAgent",
          "createdDateTime": "<%sobject.CreatedDate%>",
          "activationDateTime": "<%sobject.CreatedDate%>",
          "dueDateTime": null,
          "expirationDateTime": null
        },
        "extMap": {
          "customerId": null,
          "productType": null,
          "sourceProcessType": "SALESFORCE",
          "sourceTenant": "Environment"
        },
        "dataMap": {
          "Subject": "LiveAgent",
          "sfdc_ServiceChannelId": "<%sobject.ServiceChannelId%>",
          "sfdc_WorkItemId": "<%sobject.WorkItemId%>",
          "sfdc_QueueId": "<%sobject.QueueId%>",
          "sfdc_Id": "<%sobject.Id%>",
          "MediaType": "liveagentchat",
          "id_transfer_object": "/<%sobject.Id%>"
        }
      }
    },
    {
      "name": "Cases Routing",
      "handler": "pureengage_ewm",
      "enabled": false,
      "sfdc": {
        "push_topic": "CaseUpdatesGenesys",
        "sObjectName": "case"
      },
      "genesys": {
        "capturePoint": {
          "url": "http://interactionserver:7612/Genesys/Interaction/GEN_CP_1/WebServiceCapturePoint?wsdl"
        }
      },
      "prioritySetup": {
        "sObjectField": "priority",
        "priorityMap": {
          "Normal": 100,
          "Serious": 200,
          "High": 300
        },
        "defaultPriority": 100
      },
      "taskSetup": {
        "sfdcFieldsToGetFromSobject": [
          "id",
          "casenumber",
          "reason",
          "type",
          "subject",
          "status",
          "createddate",
          "duedate__c",
          "supportcategory__c",
          "priority",
          "team__c",
          "origin",
          "team__r.cti_skill__c",
          "contact.id",
          "contact.name",
          "contact.email",
          "contact.homephone",
          "contact.mobilephone",
          "contact.workphone__c",
          "account.ServiceContractType__c",
          "account.Pagent__r.FederationIdentifier",
          "account.PBAAgent__r.FederationIdentifier"
        ],
        "propertiesMap": {
          "captureId": "<%sobject.id%>",
          "channel": "<%sobject.origin%>",
          "category": "EWM",
          "mediaType": "<%sobject.origin%>",
          "createdDateTime": "<%sobject.createddate%>",
          "activationDateTime": "<%sobject.createddate%>",
          "dueDateTime": null,
          "expirationDateTime": null
        },
        "extMap": {
          "customerId": "<%sobject.contact.Id%>",
          "productType": "<%sobject.supportcategory__c%>",
          "sourceProcessType": "SALESFORCE",
          "sourceTenant": "Environment"
        },
        "dataMap": {
          "Subject": "<%sobject.subject%>",
          "sfdc_Id": "<%sobject.id%>",
          "sfdc_Origin": "<%sobject.origin%>",
          "sfdc_Status": "<%sobject.status%>",
          "sfdc_SupportCategory": "<%sobject.supportcategory__c%>",
          "sfdc_Priority": "<%sobject.priority%>",
          "sfdc_CreatedDate": "<%sobject.createdate%>",
          "sfdc_CaseNumber": "<%sobject.casenumber%>",
          "sfdc_Subject": "<%sobject.subject%>",
          "MediaType": "workitem",
          "id_transfer_object": "/<%sobject.id%>",
          "sfdc_AccountServiceContractType": "<%sobject.account.ServiceContractType__c%>",
          "sfdc_PreferredAgent": "<%sobject.account.Pagent__r.FederationIdentifier%>",
          "sfdc_BackupAgent": "<%sobject.account.PBAAgent__r.FederationIdentifier%>"
        }
      }
    }
  ]
}
